<?xml version="1.0" encoding="UTF-8" standalone="no"?>
<svg
   xmlns:dc="http://purl.org/dc/elements/1.1/"
   xmlns:cc="http://creativecommons.org/ns#"
   xmlns:rdf="http://www.w3.org/1999/02/22-rdf-syntax-ns#"
   xmlns:svg="http://www.w3.org/2000/svg"
   xmlns="http://www.w3.org/2000/svg"
   xmlns:sodipodi="http://sodipodi.sourceforge.net/DTD/sodipodi-0.dtd"
   xmlns:inkscape="http://www.inkscape.org/namespaces/inkscape"
   width="2628.2971"
   height="4886.7227"
   viewBox="0 0 695.4036 1292.9454"
   version="1.1"
   id="svg8"
   inkscape:version="1.0 (1.0+r73+1)"
   sodipodi:docname="gosh-governance-map.svg"
   inkscape:export-filename="/home/greg/gosh-governance/gosh-governance-map.png"
   inkscape:export-xdpi="59.880001"
   inkscape:export-ydpi="59.880001">
  <defs
     id="defs2">
    <marker
       inkscape:isstock="true"
       style="overflow:visible"
       id="marker2466"
       refX="0"
       refY="0"
       orient="auto"
       inkscape:stockid="Arrow1Lstart">
      <path
         transform="matrix(0.8,0,0,0.8,10,0)"
         style="fill:#000000;fill-opacity:1;fill-rule:evenodd;stroke:#000000;stroke-width:1pt;stroke-opacity:1"
         d="M 0,0 5,-5 -12.5,0 5,5 Z"
         id="path2464" />
    </marker>
    <marker
       inkscape:isstock="true"
       style="overflow:visible"
       id="marker2228"
       refX="0"
       refY="0"
       orient="auto"
       inkscape:stockid="Arrow1Lend">
      <path
         transform="matrix(-0.8,0,0,-0.8,-10,0)"
         style="fill:#000000;fill-opacity:1;fill-rule:evenodd;stroke:#000000;stroke-width:1pt;stroke-opacity:1"
         d="M 0,0 5,-5 -12.5,0 5,5 Z"
         id="path2226" />
    </marker>
    <marker
       inkscape:isstock="true"
       style="overflow:visible"
       id="marker2188"
       refX="0"
       refY="0"
       orient="auto"
       inkscape:stockid="Arrow1Lend">
      <path
         transform="matrix(-0.8,0,0,-0.8,-10,0)"
         style="fill:#000000;fill-opacity:1;fill-rule:evenodd;stroke:#000000;stroke-width:1pt;stroke-opacity:1"
         d="M 0,0 5,-5 -12.5,0 5,5 Z"
         id="path2186" />
    </marker>
    <rect
       x="-418.2359"
       y="26.581724"
       width="32.948505"
       height="57.032146"
       id="rect876" />
    <rect
       id="rect876-3"
       height="57.032146"
       width="32.948505"
       y="26.581724"
       x="-418.2359" />
    <rect
       id="rect908"
       height="57.032146"
       width="32.948505"
       y="26.581724"
       x="-418.2359" />
    <marker
       inkscape:isstock="true"
       style="overflow:visible"
       id="Arrow1Lend-3"
       refX="0"
       refY="0"
       orient="auto"
       inkscape:stockid="Arrow1Lend">
      <path
         transform="matrix(-0.8,0,0,-0.8,-10,0)"
         style="fill:#000000;fill-opacity:1;fill-rule:evenodd;stroke:#000000;stroke-width:1pt;stroke-opacity:1"
         d="M 0,0 5,-5 -12.5,0 5,5 Z"
         id="path1534-7" />
    </marker>
    <marker
       inkscape:stockid="Arrow1Lend"
       orient="auto"
       refY="0"
       refX="0"
       id="Arrow1Lend-3-4"
       style="overflow:visible"
       inkscape:isstock="true">
      <path
         id="path1534-7-7"
         d="M 0,0 5,-5 -12.5,0 5,5 Z"
         style="fill:#000000;fill-opacity:1;fill-rule:evenodd;stroke:#000000;stroke-width:1pt;stroke-opacity:1"
         transform="matrix(-0.8,0,0,-0.8,-10,0)" />
    </marker>
    <rect
       id="rect876-4"
       height="57.032146"
       width="32.948505"
       y="26.581724"
       x="-418.2359" />
    <rect
       id="rect2017"
       height="57.032146"
       width="32.948505"
       y="26.581724"
       x="-418.2359" />
    <rect
       x="-418.2359"
       y="26.581724"
       width="32.948505"
       height="57.032146"
       id="rect876-4-0" />
    <rect
       x="-418.2359"
       y="26.581724"
       width="32.948505"
       height="57.032146"
       id="rect2063" />
    <rect
       x="-418.2359"
       y="26.581724"
       width="32.948505"
       height="57.032146"
       id="rect876-4-8" />
    <rect
       x="-418.2359"
       y="26.581724"
       width="32.948505"
       height="57.032146"
       id="rect2097" />
    <rect
       id="rect876-4-8-8"
       height="57.032146"
       width="32.948505"
       y="26.581724"
       x="-418.2359" />
    <rect
       id="rect2131"
       height="57.032146"
       width="32.948505"
       y="26.581724"
       x="-418.2359" />
    <rect
       x="-418.2359"
       y="26.581724"
       width="32.948505"
       height="57.032146"
       id="rect876-4-8-8-4" />
    <rect
       x="-418.2359"
       y="26.581724"
       width="32.948505"
       height="57.032146"
       id="rect2163" />
    <marker
       inkscape:stockid="Arrow1Lend"
       orient="auto"
       refY="0"
       refX="0"
       id="marker2188-9"
       style="overflow:visible"
       inkscape:isstock="true">
      <path
         id="path2186-2"
         d="M 0,0 5,-5 -12.5,0 5,5 Z"
         style="fill:#000000;fill-opacity:1;fill-rule:evenodd;stroke:#000000;stroke-width:1pt;stroke-opacity:1"
         transform="matrix(-0.8,0,0,-0.8,-10,0)" />
    </marker>
    <marker
       inkscape:isstock="true"
       style="overflow:visible"
       id="marker2188-9-9"
       refX="0"
       refY="0"
       orient="auto"
       inkscape:stockid="Arrow1Lend">
      <path
         transform="matrix(-0.8,0,0,-0.8,-10,0)"
         style="fill:#000000;fill-opacity:1;fill-rule:evenodd;stroke:#000000;stroke-width:1pt;stroke-opacity:1"
         d="M 0,0 5,-5 -12.5,0 5,5 Z"
         id="path2186-2-2" />
    </marker>
    <rect
       id="rect876-4-8-1"
       height="57.032146"
       width="32.948505"
       y="26.581724"
       x="-418.2359" />
    <rect
       id="rect2913"
       height="57.032146"
       width="32.948505"
       y="26.581724"
       x="-418.2359" />
    <rect
       x="-418.2359"
       y="26.581724"
       width="32.948505"
       height="57.032146"
       id="rect876-4-8-1-2" />
    <rect
       x="-418.2359"
       y="26.581724"
       width="32.948505"
       height="57.032146"
       id="rect2941" />
  </defs>
  <sodipodi:namedview
     id="base"
     pagecolor="#ffffff"
     bordercolor="#666666"
     borderopacity="1.0"
     inkscape:pageopacity="0.0"
     inkscape:pageshadow="2"
     inkscape:zoom="0.096657551"
     inkscape:cx="1894.6551"
     inkscape:cy="4695.556"
     inkscape:document-units="mm"
     inkscape:current-layer="layer1"
     inkscape:document-rotation="0"
     showgrid="false"
     showguides="false"
     inkscape:snap-bbox="true"
     inkscape:bbox-nodes="true"
     inkscape:window-width="1920"
     inkscape:window-height="1025"
     inkscape:window-x="0"
     inkscape:window-y="27"
     inkscape:window-maximized="1"
     fit-margin-top="5"
     fit-margin-left="5"
     fit-margin-right="5"
     fit-margin-bottom="5"
     units="px" />
  <metadata
     id="metadata5">
    <rdf:RDF>
      <cc:Work
         rdf:about="">
        <dc:format>image/svg+xml</dc:format>
        <dc:type
           rdf:resource="http://purl.org/dc/dcmitype/StillImage" />
        <dc:title></dc:title>
      </cc:Work>
    </rdf:RDF>
  </metadata>
  <g
     inkscape:label="Layer 1"
     inkscape:groupmode="layer"
     id="layer1"
     transform="translate(477.94152,-257.84452)">
    <rect
       inkscape:export-ydpi="59.880001"
       inkscape:export-xdpi="59.880001"
       style="fill:#ff8080;fill-rule:evenodd;stroke:#e6e6e6;stroke-width:0.499999"
       id="rect1637-4"
       width="189.68184"
       height="68.324265"
       x="11.047207"
       y="268.2453"
       rx="3.7570319"
       ry="3.724642" />
    <rect
       inkscape:export-ydpi="59.880001"
       inkscape:export-xdpi="59.880001"
       ry="3.7246418"
       rx="3.7570317"
       y="1092.0886"
       x="-355.45026"
       height="95.551392"
       width="167.96867"
       id="rect1637"
       style="fill:#ff8080;fill-rule:evenodd;stroke:#e6e6e6;stroke-width:0.499999" />
    <circle
       inkscape:export-ydpi="59.880001"
       inkscape:export-xdpi="59.880001"
       r="305.04391"
       cy="749.5791"
       cx="-110.77013"
       id="path1437-2-1-3"
       style="fill:#ffffff;fill-opacity:1;fill-rule:evenodd;stroke:#000000;stroke-width:1;stroke-miterlimit:4;stroke-dasharray:2, 4;stroke-dashoffset:0" />
    <circle
       inkscape:export-ydpi="59.880001"
       inkscape:export-xdpi="59.880001"
       r="226.42407"
       style="fill:#ffffff;fill-opacity:1;fill-rule:evenodd;stroke:#000000;stroke-width:1;stroke-miterlimit:4;stroke-dasharray:2, 6;stroke-dashoffset:0"
       id="path1437-2-1"
       cx="-98.546181"
       cy="738.47693" />
    <text
       transform="matrix(1.9705981,0,0,1.9705981,858.74853,-17.812028)"
       style="font-style:normal;font-weight:normal;font-size:2.82222px;line-height:1.25;font-family:sans-serif;letter-spacing:0px;word-spacing:0px;white-space:pre;shape-inside:url(#rect876-4-8-8-4);fill:#000000;fill-opacity:1;stroke:none;stroke-width:0.50746;"
       id="text874-3-6-8-3"
       xml:space="preserve" />
    <circle
       inkscape:export-ydpi="59.880001"
       inkscape:export-xdpi="59.880001"
       r="98.765259"
       cy="725.81647"
       cx="-253.21812"
       id="path1437-2"
       style="fill:#ffffff;fill-opacity:1;fill-rule:evenodd;stroke:#000000;stroke-width:1;stroke-miterlimit:4;stroke-dasharray:3, 1;stroke-dashoffset:0" />
    <text
       inkscape:export-ydpi="59.880001"
       inkscape:export-xdpi="59.880001"
       xml:space="preserve"
       style="font-style:normal;font-weight:normal;font-size:10.5833px;line-height:1.25;font-family:sans-serif;letter-spacing:0px;word-spacing:0px;fill:#000000;fill-opacity:1;stroke:none;stroke-width:0.264583"
       x="-366.55243"
       y="617.73413"
       id="text3517"><tspan
         sodipodi:role="line"
         id="tspan3515"
         x="-366.55243"
         y="617.73413"
         style="font-weight:bold;stroke-width:0.264583">GOSH 'in person' community</tspan></text>
    <text
       inkscape:export-ydpi="59.880001"
       inkscape:export-xdpi="59.880001"
       id="text3517-5"
       y="495.19843"
       x="-171.9511"
       style="font-style:normal;font-weight:normal;font-size:18.317px;line-height:1.25;font-family:sans-serif;letter-spacing:0px;word-spacing:0px;fill:#000000;fill-opacity:1;stroke:none;stroke-width:0.264584"
       xml:space="preserve"
       transform="scale(0.99964244,1.0003577)"><tspan
         style="font-weight:bold;stroke-width:0.264584"
         y="495.19843"
         x="-171.9511"
         id="tspan3515-9"
         sodipodi:role="line">GOSH Forums</tspan></text>
    <circle
       inkscape:export-ydpi="59.880001"
       inkscape:export-xdpi="59.880001"
       style="fill:#ffffff;fill-opacity:1;fill-rule:evenodd;stroke:#000000;stroke-width:1;stroke-miterlimit:4;stroke-dasharray:4, 1;stroke-dashoffset:0"
       id="path1437-2-4"
       cx="-285.3017"
       cy="716.33173"
       r="45.335304" />
    <text
       inkscape:export-ydpi="59.880001"
       inkscape:export-xdpi="59.880001"
       id="text3517-9"
       y="667.65582"
       x="-320.18243"
       style="font-style:normal;font-weight:normal;font-size:8.82509px;line-height:1.25;font-family:sans-serif;letter-spacing:0px;word-spacing:0px;fill:#000000;fill-opacity:1;stroke:none;stroke-width:0.264583"
       xml:space="preserve"><tspan
         style="font-weight:bold;stroke-width:0.264583"
         y="667.65582"
         x="-320.18243"
         id="tspan3515-0"
         sodipodi:role="line">Int. event</tspan></text>
    <circle
       inkscape:export-ydpi="59.880001"
       inkscape:export-xdpi="59.880001"
       r="24.462086"
       cy="676.37781"
       cx="-240.59544"
       id="path1437-2-4-9"
       style="fill:#ffffff;fill-opacity:1;fill-rule:evenodd;stroke:#000000;stroke-width:1;stroke-miterlimit:4;stroke-dasharray:4, 1;stroke-dashoffset:0" />
    <text
       inkscape:export-ydpi="59.880001"
       inkscape:export-xdpi="59.880001"
       xml:space="preserve"
       style="font-style:normal;font-weight:normal;font-size:8.8251px;line-height:1.25;font-family:sans-serif;letter-spacing:0px;word-spacing:0px;fill:#000000;fill-opacity:1;stroke:none;stroke-width:0.264583"
       x="-259.77734"
       y="650.2948"
       id="text3517-9-1"><tspan
         sodipodi:role="line"
         id="tspan3515-0-7"
         x="-259.77734"
         y="650.2948"
         style="font-weight:bold;stroke-width:0.264583">Afr. OSH</tspan></text>
    <circle
       inkscape:export-ydpi="59.880001"
       inkscape:export-xdpi="59.880001"
       style="fill:#ffffff;fill-opacity:1;fill-rule:evenodd;stroke:#000000;stroke-width:1;stroke-miterlimit:4;stroke-dasharray:4, 1;stroke-dashoffset:0"
       id="path1437-2-4-9-7"
       cx="-228.28452"
       cy="737.42249"
       r="24.462088" />
    <text
       inkscape:export-ydpi="59.880001"
       inkscape:export-xdpi="59.880001"
       id="text3517-9-1-1"
       y="711.16498"
       x="-242.33272"
       style="font-style:normal;font-weight:normal;font-size:8.8251px;line-height:1.25;font-family:sans-serif;letter-spacing:0px;word-spacing:0px;fill:#000000;fill-opacity:1;stroke:none;stroke-width:0.264583"
       xml:space="preserve"><tspan
         style="font-weight:bold;stroke-width:0.264583"
         y="711.16498"
         x="-242.33272"
         id="tspan3515-0-7-1"
         sodipodi:role="line">GLGOSH</tspan></text>
    <g
       inkscape:export-ydpi="59.880001"
       inkscape:export-xdpi="59.880001"
       transform="translate(74.01713)"
       id="g4347">
      <rect
         ry="3.0081663"
         rx="3.0359318"
         y="478.63931"
         x="-97.117279"
         height="46.25058"
         width="137.993"
         id="rect4233-5-4"
         style="fill:#ececec;fill-opacity:1;fill-rule:evenodd;stroke:none;stroke-width:0.264999;stroke-miterlimit:4;stroke-dasharray:none" />
      <text
         xml:space="preserve"
         style="font-style:normal;font-weight:normal;font-size:10.5833px;line-height:1.25;font-family:sans-serif;letter-spacing:0px;word-spacing:0px;fill:#000000;fill-opacity:1;stroke:none;stroke-width:0.264583"
         x="-91.707443"
         y="490.87299"
         id="text3517-59"><tspan
           sodipodi:role="line"
           id="tspan3515-7"
           x="-91.707443"
           y="490.87299"
           style="font-style:italic;stroke-width:0.264583">- anyone can join</tspan><tspan
           id="tspan3699"
           sodipodi:role="line"
           x="-91.707443"
           y="504.10211"
           style="font-style:italic;stroke-width:0.264583">- interest focused</tspan><tspan
           id="tspan999"
           sodipodi:role="line"
           x="-91.707443"
           y="517.33124"
           style="font-style:italic;stroke-width:0.264583">- forum code of conduct</tspan></text>
    </g>
    <g
       inkscape:export-ydpi="59.880001"
       inkscape:export-xdpi="59.880001"
       id="g4354">
      <rect
         style="fill:#ececec;fill-opacity:1;fill-rule:evenodd;stroke:none;stroke-width:0.264999;stroke-miterlimit:4;stroke-dasharray:none"
         id="rect4233-5-4-1"
         width="192.51682"
         height="37.374512"
         x="-190.81714"
         y="602.38104"
         rx="3.0359318"
         ry="3.0081663" />
      <text
         id="text3517-59-7"
         y="617.93036"
         x="-187.87978"
         style="font-style:normal;font-weight:normal;font-size:10.5833px;line-height:1.25;font-family:sans-serif;letter-spacing:0px;word-spacing:0px;fill:#000000;fill-opacity:1;stroke:none;stroke-width:0.264583"
         xml:space="preserve"><tspan
           style="font-style:italic;stroke-width:0.264583"
           y="617.93036"
           x="-187.87978"
           sodipodi:role="line"
           id="tspan3645-7">- joined thru event application</tspan><tspan
           id="tspan3676"
           style="font-style:italic;stroke-width:0.264583"
           y="631.15948"
           x="-187.87978"
           sodipodi:role="line">- diversity goals / selection applied</tspan></text>
    </g>
    <circle
       inkscape:export-ydpi="59.880001"
       inkscape:export-xdpi="59.880001"
       style="fill:#ffffff;fill-opacity:1;fill-rule:evenodd;stroke:#000000;stroke-width:1;stroke-miterlimit:4;stroke-dasharray:4, 1;stroke-dashoffset:0"
       id="path1437-2-4-9-6"
       cx="-271.43106"
       cy="770.06116"
       r="24.462088" />
    <text
       inkscape:export-ydpi="59.880001"
       inkscape:export-xdpi="59.880001"
       id="text3517-9-1-3"
       y="743.97815"
       x="-296.49289"
       style="font-style:normal;font-weight:normal;font-size:8.8251px;line-height:1.25;font-family:sans-serif;letter-spacing:0px;word-spacing:0px;fill:#000000;fill-opacity:1;stroke:none;stroke-width:0.264583"
       xml:space="preserve"><tspan
         style="font-weight:bold;stroke-width:0.264583"
         y="743.97815"
         x="-296.49289"
         id="tspan3515-0-7-9"
         sodipodi:role="line">reGOSH</tspan></text>
    <text
       inkscape:export-ydpi="59.880001"
       inkscape:export-xdpi="59.880001"
       xml:space="preserve"
       style="font-style:normal;font-weight:normal;font-size:18.3236px;line-height:1.25;font-family:sans-serif;letter-spacing:0px;word-spacing:0px;fill:#000000;fill-opacity:1;stroke:none;stroke-width:0.264583"
       x="-477.51331"
       y="1358.1782"
       id="text3517-5-4"><tspan
         sodipodi:role="line"
         id="tspan3515-9-8"
         x="-477.51331"
         y="1358.1782"
         style="stroke-width:0.264583">Governance</tspan><tspan
         sodipodi:role="line"
         x="-477.51331"
         y="1381.0828"
         style="stroke-width:0.264583"
         id="tspan3825">- who decides what?</tspan><tspan
         sodipodi:role="line"
         x="-477.51331"
         y="1403.9872"
         style="stroke-width:0.264583"
         id="tspan3827">- how it's decided?</tspan><tspan
         sodipodi:role="line"
         x="-477.51331"
         y="1426.8917"
         style="stroke-width:0.264583"
         id="tspan3829">- ...</tspan></text>
    <text
       inkscape:export-ydpi="59.880001"
       inkscape:export-xdpi="59.880001"
       id="text3517-5-4-1"
       y="1358.1782"
       x="0.64882785"
       style="font-style:normal;font-weight:normal;font-size:18.3236px;line-height:1.25;font-family:sans-serif;letter-spacing:0px;word-spacing:0px;fill:#000000;fill-opacity:1;stroke:none;stroke-width:0.264583"
       xml:space="preserve"><tspan
         style="stroke-width:0.264583"
         y="1358.1782"
         x="0.64882785"
         id="tspan3515-9-8-2"
         sodipodi:role="line">Resource management</tspan><tspan
         style="stroke-width:0.264583"
         y="1381.0828"
         x="0.64882785"
         sodipodi:role="line"
         id="tspan3859">- where money goes</tspan><tspan
         style="stroke-width:0.264583"
         y="1403.9872"
         x="0.64882785"
         sodipodi:role="line"
         id="tspan3861">- ...</tspan></text>
    <text
       inkscape:export-ydpi="59.880001"
       inkscape:export-xdpi="59.880001"
       id="text3517-5-4-8"
       y="1259.4357"
       x="-254.94952"
       style="font-style:normal;font-weight:normal;font-size:18.3236px;line-height:1.25;font-family:sans-serif;letter-spacing:0px;word-spacing:0px;fill:#000000;fill-opacity:1;stroke:none;stroke-width:0.264583"
       xml:space="preserve"><tspan
         style="font-weight:bold;stroke-width:0.264583"
         y="1259.4357"
         x="-254.94952"
         id="tspan3515-9-8-5"
         sodipodi:role="line">Decision-making</tspan></text>
    <path
       inkscape:export-ydpi="59.880001"
       inkscape:export-xdpi="59.880001"
       style="fill:#000000;fill-opacity:1;fill-rule:evenodd;stroke:#000000;stroke-width:0.264999;stroke-miterlimit:4;stroke-dasharray:none"
       id="path3819"
       d="m -189.84534,1279.7726 c -2.41112,-0.065 -3.37682,-0.1276 -6.06264,0.019 -3.25948,0.1778 -11.45878,0.9417 -14.16102,1.1868 -12.05148,1.0929 -6.68798,0.5461 -19.2151,2.0342 -10.13228,1.3377 -20.23065,2.9459 -30.36928,4.2363 -8.4474,1.0751 -16.92798,1.8423 -25.3792,2.8905 -15.40809,2.4209 -30.72418,5.3779 -46.09672,8.0087 -1.94839,0.3325 -3.89596,0.6698 -5.84517,0.9974 -4.22147,0.7096 -7.15646,1.0956 -11.32064,2.1052 -5.80241,1.4068 -11.4215,3.3862 -17.02928,5.4076 -6.35239,2.8024 -12.76963,5.4528 -19.14117,8.2097 -4.87516,2.1399 -9.34181,5.1078 -13.92058,7.7896 -0.40655,0.2381 -1.61114,0.9774 -1.20261,0.7426 2.8189,-1.6194 5.62282,-3.2648 8.43423,-4.8973 0,0 -8.6503,6.995 -8.6503,6.995 v 0 c 3.52021,-2.0352 7.04703,-4.0589 10.56062,-6.1054 0.39847,-0.2321 1.57704,-0.9561 1.17503,-0.7302 -2.7175,1.5272 -5.41617,3.0875 -8.1225,4.6344 -0.49168,0.281 0.97533,-0.5772 1.47858,-0.8369 0.53762,-0.2775 1.09458,-0.5158 1.64188,-0.7737 6.50511,-2.9468 13.12595,-5.6356 19.59852,-8.6589 5.57663,-2.0755 11.1648,-4.0882 16.94745,-5.5319 4.75704,-1.1877 6.49962,-1.3155 11.3349,-2.1588 1.9881,-0.3468 3.97123,-0.7215 5.95684,-1.0822 15.40932,-2.7768 30.79482,-5.6904 46.25353,-8.1864 8.53358,-1.1029 17.09745,-1.9372 25.62796,-3.0591 10.13894,-1.3334 20.23499,-2.9955 30.38173,-4.2748 10.75635,-1.223 21.58196,-2.3865 32.41585,-2.6564 0.65292,-0.016 4.40524,0.076 5.58761,0.104 0,0 9.12148,-6.4091 9.12148,-6.4091 z" />
    <path
       inkscape:export-ydpi="59.880001"
       inkscape:export-xdpi="59.880001"
       style="fill:#000000;fill-opacity:1;fill-rule:evenodd;stroke:#000000;stroke-width:0.264999;stroke-miterlimit:4;stroke-dasharray:none"
       id="path3821"
       d="m -169.88639,1290.6624 c 1.09993,5.1924 1.45256,10.5035 2.07029,15.7669 0.74099,5.3004 0.79044,10.6389 0.5915,15.9762 -0.0826,1.3014 -0.16518,2.6028 -0.24776,3.9041 0,0 9.51966,-4.7812 9.51966,-4.7812 v 0 c 0.0683,-1.3006 0.13658,-2.6013 0.20486,-3.9019 0.25009,-5.4336 0.60278,-10.9035 -0.38631,-16.2903 -0.76499,-5.2849 -1.25019,-10.6014 -1.90485,-15.9006 0,0 -9.84739,5.2268 -9.84739,5.2268 z" />
    <path
       inkscape:export-ydpi="59.880001"
       inkscape:export-xdpi="59.880001"
       style="fill:#000000;fill-opacity:1;fill-rule:evenodd;stroke:#000000;stroke-width:0.264999;stroke-miterlimit:4;stroke-dasharray:none"
       id="path3823"
       d="m -138.16007,1288.1296 c 14.10396,-1.5793 28.36936,-0.7433 42.515923,-0.2297 13.56127,0.5868 27.06206,2.0324 40.59986,2.9719 1.69596,0.156 3.39318,0.2984 5.08783,0.468 5.82396,0.5829 5.36642,0.6552 11.28515,1.1107 6.44995,0.4964 12.82165,0.8336 19.27666,1.4221 13.4218896,2.2352 26.8817196,4.2966 40.21561,7.0215 8.33993,2.0031 16.18856,5.5311 24.37392,8.0178 5.67238,1.7576 11.53271,2.683 17.33061,3.8876 3.02868,0.6885 6.01583,1.6274 8.70413,3.2019 1.87015,1.2633 3.65413,2.6437 5.41864,4.0482 1.32442,1.1567 2.82093,2.0759 4.18422,3.1863 0.52636,0.4676 1.09704,0.8723 1.68434,1.2576 0,0 9.42843,-6.1009 9.42843,-6.1009 v 0 c -0.58399,-0.3141 -1.14001,-0.6597 -1.62772,-1.1165 -1.39361,-1.088 -2.85044,-2.0768 -4.23288,-3.1721 -1.83084,-1.3894 -3.6149,-2.8412 -5.50598,-4.1516 -2.78733,-1.7099 -5.91693,-2.669 -9.0937,-3.3909 -5.82938,-1.1665 -11.73518,-1.969 -17.44377,-3.6951 -8.31739,-2.4054 -16.31286,-5.839 -24.74389,-7.8821 -13.44149,-2.5552 -26.9797704,-4.5418 -40.44233,-6.9824 -2.28139,-0.242 -4.55864,-0.5271 -6.84421,-0.7258 -4.08435,-0.3552 -8.18483,-0.4978 -12.27185,-0.821 -6.75992,-0.5345 -4.56613,-0.439 -11.18876,-1.1713 -1.69344,-0.1872 -3.3901,-0.344 -5.08516,-0.516 -13.75878,-0.7164 -27.48295,-1.9739 -41.25044,-2.5337 -11.25384,-0.4176 -22.539723,-1.0726 -33.804813,-1.0432 -2.07407,0.01 -5.43406,0.1929 -7.6858,0.307 0,0 -8.88402,6.6317 -8.88402,6.6317 z" />
    <text
       inkscape:export-ydpi="59.880001"
       inkscape:export-xdpi="59.880001"
       xml:space="preserve"
       style="font-style:normal;font-weight:normal;font-size:18.3236px;line-height:1.25;font-family:sans-serif;letter-spacing:0px;word-spacing:0px;fill:#000000;fill-opacity:1;stroke:none;stroke-width:0.264583"
       x="-238.43259"
       y="1457.849"
       id="text3517-5-4-1-0"><tspan
         sodipodi:role="line"
         id="tspan3515-9-8-2-9"
         x="-238.43259"
         y="1457.849"
         style="stroke-width:0.264583">Objectives / goals</tspan><tspan
         sodipodi:role="line"
         x="-238.43259"
         y="1480.7535"
         style="stroke-width:0.264583"
         id="tspan3851">(roadmap)</tspan><tspan
         sodipodi:role="line"
         x="-238.43259"
         y="1503.658"
         style="stroke-width:0.264583"
         id="tspan3853">- timelines</tspan><tspan
         sodipodi:role="line"
         x="-238.43259"
         y="1526.5625"
         style="stroke-width:0.264583"
         id="tspan3855">- strategic goals</tspan><tspan
         sodipodi:role="line"
         x="-238.43259"
         y="1549.467"
         style="stroke-width:0.264583"
         id="tspan3857">- ...</tspan></text>
    <g
       inkscape:export-ydpi="59.880001"
       inkscape:export-xdpi="59.880001"
       id="g4096"
       transform="rotate(90,-164.08705,1035.6506)">
      <path
         sodipodi:nodetypes="cccccccscccsccscc"
         d="m -123.53512,1056.6518 c 10.33943,-0.5882 51.583267,-1.2242 61.926587,-0.4971 10.94666,1.0869 21.78801,2.7771 32.7869,3.3251 6.53667,0.61 12.80338,-0.5152 19.0692897,-2.2037 4.59521,-1.413 9.12306998,-3.0441 13.65425,-4.6506 2.1636,-0.8928 4.40309,-1.4861 6.7108903,-1.8385 l 12.66634,-9.4329 v 0 c -2.40347,0.2055 -4.76697,0.618 -6.99727,1.5872 -4.53012,1.7532 -9.1563103,3.2781 -13.7396603,4.883 -6.24493,1.7876 -12.52392,3.21 -19.0844997,2.8028 -5.7291,-0.1367 -11.42725,-0.4442 -17.11245,-1.2255 -5.14965,-0.7077 -10.25384,-1.8064 -15.45082,-2.1878 -10.56321,-0.8497 -21.07919,0.1196 -31.63236,0.771 -2.5515,0.082 -5.10171,0.236 -7.65452,0.247 -5.56725,0.024 -42.062567,-0.281 -47.629757,-0.317 z"
         id="path3977"
         style="fill:#000000;fill-opacity:1;fill-rule:evenodd;stroke:#000000;stroke-width:0.264999;stroke-miterlimit:4;stroke-dasharray:none" />
      <path
         d="m -1.4474433,1032.0669 c 3.64974,3.0016 7.06612,6.2925 10.37495,9.6645 1.8766103,1.9643 4.0430703,3.8139 5.3149203,6.2574 0.3919,1.1952 1.04275,2.7373 -0.34314,3.4444 -2.88271,1.3298 -5.4852303,3.1801 -7.9656703,5.1441 -2.59819,1.9238 -5.10292002,4.0844 -7.14788,6.5987 -1.14927,0.8476 -1.59851,2.149 -2.35998,3.2673 -0.9099,1.3363 -2.1972,2.4979 -3.22421,3.7489 -1.36978,1.652 -0.72782,0.8124 -1.93151,2.5145 0,0 14.47937,-6.2514 14.47937,-6.2514 v 0 c 1.236,-1.5967 0.59032,-0.7897 1.94091,-2.4179 1.94148,-2.2885 3.6387103,-4.7438 5.6225003,-6.9924 2.19263,-2.3224 4.63553,-4.4064 7.21638,-6.2866 1.53241,-1.1269 3.09149,-2.1572 4.7095,-3.1574 0.52388,-0.3238 2.01869,-1.2016 2.54495,-1.6678 0.27228,-0.2412 0.47397,-0.5519 0.71096,-0.8279 0.55504,-1.7299 0.29141,-3.3713 -0.48204,-5.0135 -1.41669,-2.5556 -3.68176,-4.4954 -5.74802,-6.5156 -3.32661,-3.3928 -6.85777,-6.5843 -10.29872,-9.8602 0,0 -13.4132703,8.3509 -13.4132703,8.3509 z"
         id="path3979"
         style="fill:#000000;fill-opacity:1;fill-rule:evenodd;stroke:#000000;stroke-width:0.264999;stroke-miterlimit:4;stroke-dasharray:none" />
    </g>
    <g
       inkscape:export-ydpi="59.880001"
       inkscape:export-xdpi="59.880001"
       transform="matrix(-1,0,0,1,-321.93899,0)"
       id="g1016"
       style="fill:#b3b3b3">
      <path
         style="fill:#b3b3b3;fill-rule:evenodd;stroke-width:1;stroke-miterlimit:4;stroke-dasharray:none;stroke-dashoffset:0"
         id="path1070"
         d="m -255.0958,1233.1235 c -4.02397,-5.6483 -6.29181,-12.3799 -8.83908,-18.7787 -3.69066,-8.5663 -5.69257,-17.63 -7.04476,-26.8152 -2.04061,-15.3495 -2.9528,-30.8023 -3.46255,-46.2679 -0.51521,-15.3144 0.0341,-30.6375 0.40193,-45.949 0.0421,-1.9778 0.0879,-3.9555 0.12629,-5.9334 0.0711,-3.6624 0.0998,-8.2691 0.32985,-11.8877 0.43781,-6.8859 1.3763,-13.7412 2.28404,-20.576 1.5345,-11.059 3.52456,-22.0332 6.88534,-32.6897 1.6455,-5.597 3.75343,-11.0507 5.30988,-16.6737 0.88362,-3.1923 1.67104,-6.4105 2.54121,-9.60645 2.89745,-9.91105 5.8328,-19.81202 9.39295,-29.50686 4.84447,-12.01079 11.11012,-23.35694 17.56942,-34.5563 3.26149,-5.72429 7.33009,-10.90031 10.84204,-16.45756 1.76409,-3.07565 4.06572,-5.79504 5.95712,-8.7825 0.8825,-1.39393 1.55065,-2.71666 2.32244,-4.16968 1.0332,-1.65748 1.71952,-3.5021 2.7115,-5.18112 0.6709,-1.13562 1.43865,-2.17228 2.05891,-3.3419 0.28416,-0.87651 0.77949,-1.64592 1.17536,-2.47123 0,0 -13.09374,5.94024 -13.09374,5.94024 v 0 c -0.39102,0.7898 -0.7492,1.59427 -1.15174,2.37847 -1.6063,2.77587 -3.14557,5.57601 -4.57533,8.44949 -2.46388,4.45474 -5.54467,8.4976 -8.22845,12.81944 -3.51513,5.45028 -7.44884,10.6259 -10.48368,16.38244 -6.21859,11.32025 -12.30715,22.73194 -17.29268,34.6619 -3.68618,9.72336 -6.66741,19.66174 -9.4754,29.67282 -0.91443,3.2012 -1.73439,6.4292 -2.66467,9.6259 -1.63187,5.6076 -3.72573,11.0754 -5.33535,16.6911 -3.11264,10.6882 -4.92376,21.6604 -6.37456,32.6885 -0.89731,6.8961 -1.84002,13.7924 -2.34068,20.7323 -0.42215,5.8516 -0.33334,6.3497 -0.38258,11.9586 -0.0172,1.965 -0.0375,3.93 -0.0563,5.8949 -0.16306,15.276 -0.48394,30.5588 -0.0243,45.8324 0.54433,15.5659 1.25552,31.1224 3.10042,46.6 0.22808,1.9779 0.38393,3.9654 0.68426,5.9337 1.12068,7.3442 3.60727,14.3935 6.3489,21.2627 2.54329,6.6094 4.84604,13.4085 8.46667,19.5247 0,0 12.31732,-7.4047 12.31732,-7.4047 z" />
      <path
         style="fill:#b3b3b3;fill-rule:evenodd;stroke-width:1;stroke-miterlimit:4;stroke-dasharray:none;stroke-dashoffset:0"
         id="path1072"
         d="m -202.55763,890.33979 c -3.44506,0.60148 -6.89301,1.20954 -10.35005,1.74575 -2.56162,0.43503 -5.15952,0.47937 -7.74582,0.63225 -0.33504,0.0359 -0.67007,0.0718 -1.00511,0.10774 0,0 -11.48978,8.5803 -11.48978,8.5803 v 0 c 0.33066,-0.0519 0.66134,-0.10379 0.992,-0.15571 2.60189,-0.36644 5.26311,-0.15533 7.86056,-0.62425 3.43379,-0.51531 6.82886,-1.26728 10.28805,-1.60272 0,0 11.45015,-8.68336 11.45015,-8.68336 z" />
      <path
         style="fill:#b3b3b3;fill-rule:evenodd;stroke-width:1;stroke-miterlimit:4;stroke-dasharray:none;stroke-dashoffset:0"
         id="path1074"
         d="m -215.59553,899.46212 c 1.69988,4.13047 2.44345,8.57258 3.0268,12.97742 0.26856,2.23295 0.48665,4.50839 1.03534,6.6956 0,0 12.66728,-6.84401 12.66728,-6.84401 v 0 c -0.51192,-2.12968 -0.89758,-4.29511 -1.17544,-6.46689 -0.72861,-4.49998 -1.63383,-8.98324 -3.01683,-13.33288 0,0 -12.53715,6.97076 -12.53715,6.97076 z" />
    </g>
    <text
       inkscape:export-ydpi="59.880001"
       inkscape:export-xdpi="59.880001"
       xml:space="preserve"
       style="font-style:normal;font-weight:normal;font-size:8.8251px;line-height:1.25;font-family:sans-serif;letter-spacing:0px;word-spacing:0px;fill:#000000;fill-opacity:1;stroke:none;stroke-width:0.264583"
       x="-350.07675"
       y="1104.0294"
       id="text3517-9-1-0-6"><tspan
         id="tspan3863-3"
         sodipodi:role="line"
         x="-350.07675"
         y="1104.0294"
         style="font-weight:bold;stroke-width:0.264583">How do these groups,</tspan><tspan
         sodipodi:role="line"
         x="-350.07675"
         y="1115.0608"
         style="font-weight:bold;stroke-width:0.264583"
         id="tspan3999">some/all/one,</tspan><tspan
         sodipodi:role="line"
         x="-350.07675"
         y="1126.0922"
         style="font-weight:bold;stroke-width:0.264583"
         id="tspan4001">fit into these decision-making</tspan><tspan
         sodipodi:role="line"
         x="-350.07675"
         y="1137.1235"
         style="font-weight:bold;stroke-width:0.264583"
         id="tspan4003">buckets?</tspan></text>
    <text
       inkscape:export-ydpi="59.880001"
       inkscape:export-xdpi="59.880001"
       id="text3517-9-1-0-6-8"
       y="1159.2494"
       x="-350.33838"
       style="font-style:normal;font-weight:normal;font-size:8.8251px;line-height:1.25;font-family:sans-serif;letter-spacing:0px;word-spacing:0px;fill:#000000;fill-opacity:1;stroke:none;stroke-width:0.264583"
       xml:space="preserve"><tspan
         id="tspan4003-1"
         style="font-weight:bold;stroke-width:0.264583"
         y="1159.2494"
         x="-350.33838"
         sodipodi:role="line">Choose efficient</tspan><tspan
         style="font-weight:bold;stroke-width:0.264583"
         y="1170.2808"
         x="-350.33838"
         sodipodi:role="line"
         id="tspan4043">simple, scalable ways to groups</tspan><tspan
         style="font-weight:bold;stroke-width:0.264583"
         y="1181.3121"
         x="-350.33838"
         sodipodi:role="line"
         id="tspan4047">to make decisions</tspan></text>
    <circle
       inkscape:export-ydpi="59.880001"
       inkscape:export-xdpi="59.880001"
       r="34.169342"
       cy="872.40942"
       cx="-159.48624"
       id="path1437-2-4-9-9-5"
       style="fill:#ffffff;fill-opacity:1;fill-rule:evenodd;stroke:#000000;stroke-width:1;stroke-miterlimit:4;stroke-dasharray:none" />
    <text
       inkscape:export-ydpi="59.880001"
       inkscape:export-xdpi="59.880001"
       xml:space="preserve"
       style="font-style:normal;font-weight:normal;font-size:8.8251px;line-height:1.25;font-family:sans-serif;letter-spacing:0px;word-spacing:0px;fill:#000000;fill-opacity:1;stroke:none;stroke-width:0.264583"
       x="-198.07591"
       y="832.07831"
       id="text3517-9-1-0-9"><tspan
         id="tspan3863-8"
         sodipodi:role="line"
         x="-198.07591"
         y="832.07831"
         style="font-weight:bold;stroke-width:0.264583">GOSH non-profit</tspan></text>
    <g
       inkscape:export-ydpi="59.880001"
       inkscape:export-xdpi="59.880001"
       transform="translate(2.6969266,7.3512619)"
       id="g4362">
      <rect
         ry="3.0081663"
         rx="3.0359318"
         y="822.69843"
         x="-113.29551"
         height="47.984619"
         width="156.94865"
         id="rect4233-5-4-1-8"
         style="fill:#ececec;fill-opacity:1;fill-rule:evenodd;stroke:none;stroke-width:0.264999;stroke-miterlimit:4;stroke-dasharray:none" />
      <text
         xml:space="preserve"
         style="font-style:normal;font-weight:normal;font-size:8.8251px;line-height:1.25;font-family:sans-serif;letter-spacing:0px;word-spacing:0px;fill:#000000;fill-opacity:1;stroke:none;stroke-width:0.264583"
         x="-108.4283"
         y="831.8468"
         id="text3517-9-1-0-9-4"><tspan
           id="tspan3863-8-8"
           sodipodi:role="line"
           x="-108.4283"
           y="831.8468"
           style="font-style:italic;font-weight:normal;stroke-width:0.264583">- future action-arm of community</tspan><tspan
           id="tspan4088"
           sodipodi:role="line"
           x="-108.4283"
           y="842.87817"
           style="font-style:italic;font-weight:normal;stroke-width:0.264583">- controlled via governance</tspan><tspan
           id="tspan4090"
           sodipodi:role="line"
           x="-108.4283"
           y="853.90955"
           style="font-style:italic;font-weight:normal;stroke-width:0.264583">- feedback to community</tspan><tspan
           id="tspan4092"
           sodipodi:role="line"
           x="-108.4283"
           y="864.94092"
           style="font-style:italic;font-weight:normal;stroke-width:0.264583">re. legality of actions</tspan></text>
    </g>
    <text
       inkscape:export-ydpi="59.880001"
       inkscape:export-xdpi="59.880001"
       transform="scale(0.99964243,1.0003577)"
       xml:space="preserve"
       style="font-style:normal;font-weight:normal;font-size:18.317px;line-height:1.25;font-family:sans-serif;letter-spacing:0px;word-spacing:0px;fill:#000000;fill-opacity:1;stroke:none;stroke-width:0.264583"
       x="-230.36377"
       y="272.99139"
       id="text3517-5-1"><tspan
         sodipodi:role="line"
         id="tspan3515-9-0"
         x="-230.36377"
         y="272.99139"
         style="font-weight:bold;stroke-width:0.264583">GOSH Values</tspan></text>
    <text
       inkscape:export-ydpi="59.880001"
       inkscape:export-xdpi="59.880001"
       xml:space="preserve"
       style="font-style:normal;font-weight:normal;font-size:10.5833px;line-height:1.25;font-family:sans-serif;letter-spacing:0px;word-spacing:0px;fill:#000000;fill-opacity:1;stroke:none;stroke-width:0.264583"
       x="-279.04993"
       y="295.39417"
       id="text3517-59-3"><tspan
         id="tspan3699-4"
         sodipodi:role="line"
         x="-279.04993"
         y="295.39417"
         style="font-style:italic;stroke-width:0.264583">http://openhardware.science/gosh-manifesto/</tspan><tspan
         sodipodi:role="line"
         x="-279.04993"
         y="308.62329"
         style="font-style:italic;stroke-width:0.264583"
         id="tspan4149">--&gt; mold into a governance-focused intepretation</tspan><tspan
         sodipodi:role="line"
         x="-279.04993"
         y="321.85242"
         style="font-style:italic;stroke-width:0.264583"
         id="tspan4151">... --&gt; ... TBD!</tspan></text>
    <g
       inkscape:export-ydpi="59.880001"
       inkscape:export-xdpi="59.880001"
       transform="rotate(90,359.31932,727.51656)"
       id="g4096-6">
      <path
         style="fill:#000000;fill-opacity:1;fill-rule:evenodd;stroke:#000000;stroke-width:0.264999;stroke-miterlimit:4;stroke-dasharray:none"
         id="path3977-3"
         d="m -45.669521,1258.2022 c 10.94666,1.0869 21.78801,2.7771 32.7869,3.3251 6.5366704,0.61 12.80338039,-0.5152 19.0692901,-2.2037 4.5952099,-1.413 9.1230699,-3.0441 13.6542499,-4.6506 2.1636,-0.8928 4.40309,-1.4861 6.71089,-1.8385 l 12.66634,-9.4329 v 0 c -2.40347,0.2055 -4.76697,0.618 -6.99727,1.5872 -4.53012,1.7532 -9.15631,3.2781 -13.73966,4.883 -6.24493,1.7876 -12.5239199,3.21 -19.08449961,2.8028 -5.72909999,-0.1367 -11.42725039,-0.4442 -17.11245039,-1.2255 -5.14965,-0.7077 -10.25384,-1.8064 -15.45082,-2.1878 z"
         sodipodi:nodetypes="ccccccscccscc" />
      <path
         style="fill:#000000;fill-opacity:1;fill-rule:evenodd;stroke:#000000;stroke-width:0.264999;stroke-miterlimit:4;stroke-dasharray:none"
         id="path3979-1"
         d="m 14.491569,1234.1144 c 3.64974,3.0016 7.06612,6.2925 10.37495,9.6645 1.87661,1.9643 4.04307,3.8139 5.31492,6.2574 0.3919,1.1952 1.04275,2.7373 -0.34314,3.4444 -2.88271,1.3298 -5.48523,3.1801 -7.96567,5.1441 -2.59819,1.9238 -5.10292,4.0844 -7.14788,6.5987 -1.14927,0.8476 -1.59851,2.149 -2.35998,3.2673 -0.9099,1.3363 -2.1972,2.4979 -3.2242099,3.7489 -1.36978,1.652 -0.72782,0.8124 -1.93151,2.5145 0,0 14.4793699,-6.2514 14.4793699,-6.2514 v 0 c 1.236,-1.5967 0.59032,-0.7897 1.94091,-2.4179 1.94148,-2.2885 3.63871,-4.7438 5.6225,-6.9924 2.19263,-2.3224 4.63553,-4.4064 7.21638,-6.2866 1.53241,-1.1269 3.09149,-2.1572 4.7095,-3.1574 0.52388,-0.3238 2.01869,-1.2016 2.54495,-1.6678 0.27228,-0.2412 0.47397,-0.5519 0.71096,-0.8279 0.55504,-1.7299 0.29141,-3.3713 -0.48204,-5.0135 -1.41669,-2.5556 -3.68176,-4.4954 -5.74802,-6.5156 -3.32661,-3.3928 -6.85777,-6.5843 -10.29872,-9.8602 0,0 -13.41327,8.3509 -13.41327,8.3509 z" />
    </g>
    <g
       inkscape:export-ydpi="59.880001"
       inkscape:export-xdpi="59.880001"
       transform="translate(0,-36.279358)"
       id="g4336">
      <rect
         ry="3.0081663"
         rx="3.0359318"
         y="328.03308"
         x="-438.28372"
         height="19.186035"
         width="109.49023"
         id="rect4233-5-7"
         style="fill:#ffccaa;fill-opacity:1;fill-rule:evenodd;stroke:none;stroke-width:0.264999;stroke-miterlimit:4;stroke-dasharray:none" />
      <text
         id="text3517-59-75"
         y="340.32303"
         x="-431.99069"
         style="font-style:normal;font-weight:normal;font-size:10.5833px;line-height:1.25;font-family:sans-serif;letter-spacing:0px;word-spacing:0px;fill:#000000;fill-opacity:1;stroke:none;stroke-width:0.264583"
         xml:space="preserve"><tspan
           style="font-style:italic;stroke-width:0.264583"
           y="340.32303"
           x="-431.99069"
           sodipodi:role="line"
           id="tspan3699-6">what's our values?</tspan></text>
    </g>
    <g
       inkscape:export-ydpi="59.880001"
       inkscape:export-xdpi="59.880001"
       id="g4331">
      <rect
         style="fill:#ffccaa;fill-opacity:1;fill-rule:evenodd;stroke:none;stroke-width:0.264999;stroke-miterlimit:4;stroke-dasharray:none"
         id="rect4233-5"
         width="73.502403"
         height="19.186035"
         x="-418.51312"
         y="478.28824"
         rx="3.0359318"
         ry="3.0081663" />
      <text
         xml:space="preserve"
         style="font-style:normal;font-weight:normal;font-size:10.5833px;line-height:1.25;font-family:sans-serif;letter-spacing:0px;word-spacing:0px;fill:#000000;fill-opacity:1;stroke:none;stroke-width:0.264583"
         x="-415.7486"
         y="491.3855"
         id="text3517-59-75-2"><tspan
           id="tspan3699-6-1"
           sodipodi:role="line"
           x="-415.7486"
           y="491.3855"
           style="font-style:italic;stroke-width:0.264583">who are we?</tspan></text>
    </g>
    <g
       inkscape:export-ydpi="59.880001"
       inkscape:export-xdpi="59.880001"
       id="g4341"
       transform="translate(0,-21.784033)">
      <rect
         ry="3.0081663"
         rx="3.0359318"
         y="1272.5602"
         x="-464.32971"
         height="19.186033"
         width="115.28731"
         id="rect4233"
         style="fill:#ffccaa;fill-opacity:1;fill-rule:evenodd;stroke:none;stroke-width:0.264999;stroke-miterlimit:4;stroke-dasharray:none" />
      <text
         id="text3517-59-75-2-7"
         y="1286.1066"
         x="-460.67908"
         style="font-style:normal;font-weight:normal;font-size:10.5833px;line-height:1.25;font-family:sans-serif;letter-spacing:0px;word-spacing:0px;fill:#000000;fill-opacity:1;stroke:none;stroke-width:0.264583"
         xml:space="preserve"><tspan
           style="font-style:italic;stroke-width:0.264583"
           y="1286.1066"
           x="-460.67908"
           sodipodi:role="line"
           id="tspan3699-6-1-8">how do we do stuff?</tspan></text>
    </g>
    <text
       inkscape:export-ydpi="59.880001"
       inkscape:export-xdpi="59.880001"
       transform="scale(0.99964243,1.0003577)"
       xml:space="preserve"
       style="font-style:normal;font-weight:normal;font-size:18.317px;line-height:1.25;font-family:sans-serif;letter-spacing:0px;word-spacing:0px;fill:#000000;fill-opacity:1;stroke:none;stroke-width:0.264583"
       x="-114.44069"
       y="417.1806"
       id="text3517-5-6"><tspan
         sodipodi:role="line"
         id="tspan3515-9-7"
         x="-114.44069"
         y="417.1806"
         style="font-weight:bold;stroke-width:0.264583">GOSH Manifesto</tspan><tspan
         id="tspan1123"
         sodipodi:role="line"
         x="-114.44069"
         y="440.07684"
         style="font-weight:bold;stroke-width:0.264583">+ COC</tspan></text>
    <g
       inkscape:export-ydpi="59.880001"
       inkscape:export-xdpi="59.880001"
       transform="translate(153.88883,-78.297244)"
       id="g4347-5">
      <rect
         style="fill:#ececec;fill-opacity:1;fill-rule:evenodd;stroke:none;stroke-width:0.264999;stroke-miterlimit:4;stroke-dasharray:none"
         id="rect4233-5-4-3"
         width="152.53262"
         height="32.517475"
         x="-97.117279"
         y="478.63931"
         rx="3.0359318"
         ry="3.0081663" />
      <text
         id="text3517-59-5"
         y="490.87299"
         x="-91.707443"
         style="font-style:normal;font-weight:normal;font-size:10.5833px;line-height:1.25;font-family:sans-serif;letter-spacing:0px;word-spacing:0px;fill:#000000;fill-opacity:1;stroke:none;stroke-width:0.264583"
         xml:space="preserve"><tspan
           style="font-style:italic;stroke-width:0.264583"
           y="490.87299"
           x="-91.707443"
           id="tspan3515-7-6"
           sodipodi:role="line">- anyone can sign</tspan><tspan
           style="font-style:italic;stroke-width:0.264583"
           y="504.10211"
           x="-91.707443"
           sodipodi:role="line"
           id="tspan999-9">- values alignment focused</tspan></text>
    </g>
    <text
       inkscape:export-ydpi="59.880001"
       inkscape:export-xdpi="59.880001"
       id="text3517-9-1-0-6-1"
       y="1225.1487"
       x="-34.926079"
       style="font-style:normal;font-weight:normal;font-size:8.8251px;line-height:1.25;font-family:sans-serif;letter-spacing:0px;word-spacing:0px;fill:#000000;fill-opacity:1;stroke:none;stroke-width:0.264583"
       xml:space="preserve"><tspan
         id="tspan4003-9"
         style="font-weight:bold;stroke-width:0.264583"
         y="1225.1487"
         x="-34.926079"
         sodipodi:role="line">somehow feedback</tspan><tspan
         id="tspan1112"
         style="font-weight:bold;stroke-width:0.264583"
         y="1236.1801"
         x="-34.926079"
         sodipodi:role="line">here!</tspan></text>
    <g
       inkscape:export-ydpi="59.880001"
       inkscape:export-xdpi="59.880001"
       transform="translate(-33.525959,-34.106329)"
       id="g1071">
      <g
         id="g1049"
         transform="translate(691.72109,-165.33068)">
        <text
           id="text3517-9-1-0-9-6"
           y="862.60406"
           x="-841.45862"
           style="font-style:normal;font-weight:normal;font-size:8.8251px;line-height:1.25;font-family:sans-serif;letter-spacing:0px;word-spacing:0px;fill:#000000;fill-opacity:1;stroke:none;stroke-width:0.264583"
           xml:space="preserve"><tspan
             style="font-weight:bold;stroke-width:0.264583"
             y="862.60406"
             x="-841.45862"
             sodipodi:role="line"
             id="tspan3863-8-7">Gov. Working</tspan><tspan
             id="tspan1043"
             style="font-weight:bold;stroke-width:0.264583"
             y="873.63544"
             x="-841.45862"
             sodipodi:role="line">Group</tspan></text>
      </g>
      <circle
         style="fill:#ffffff;fill-opacity:1;fill-rule:evenodd;stroke:#000000;stroke-width:1;stroke-miterlimit:4;stroke-dasharray:4, 1;stroke-dashoffset:0"
         id="path1437-2-4-9-6-5"
         cx="-108.16298"
         cy="731.31903"
         r="24.46209" />
    </g>
    <g
       inkscape:export-ydpi="59.880001"
       inkscape:export-xdpi="59.880001"
       transform="translate(79.17061,54.532637)"
       id="g4354-3">
      <rect
         ry="3.0081663"
         rx="3.0359318"
         y="602.38104"
         x="-190.81714"
         height="37.374512"
         width="148.25136"
         id="rect4233-5-4-1-5"
         style="fill:#ececec;fill-opacity:1;fill-rule:evenodd;stroke:none;stroke-width:0.264999;stroke-miterlimit:4;stroke-dasharray:none" />
      <text
         xml:space="preserve"
         style="font-style:normal;font-weight:normal;font-size:10.5833px;line-height:1.25;font-family:sans-serif;letter-spacing:0px;word-spacing:0px;fill:#000000;fill-opacity:1;stroke:none;stroke-width:0.264583"
         x="-187.87978"
         y="617.93036"
         id="text3517-59-7-6"><tspan
           id="tspan1100"
           sodipodi:role="line"
           x="-187.87978"
           y="617.93036"
           style="font-style:italic;stroke-width:0.264583">- provide informed </tspan><tspan
           sodipodi:role="line"
           x="-187.87978"
           y="631.15948"
           style="font-style:italic;stroke-width:0.264583"
           id="tspan3676-9">recommendations on gov. </tspan></text>
    </g>
    <g
       inkscape:export-ydpi="59.880001"
       inkscape:export-xdpi="59.880001"
       id="g1174-6"
       transform="translate(-4.3962385,28.574906)">
      <g
         transform="translate(16.511323,-123.65953)"
         id="g1211">
        <g
           id="g1174"
           transform="translate(3.1716665e-6,-61.043697)">
          <rect
             ry="3.0081537"
             rx="3.0359349"
             y="1489.9375"
             x="-243.62988"
             height="61.043648"
             width="144.29216"
             id="rect1125"
             style="fill:#ffffff;fill-rule:evenodd;stroke:#000000;stroke-width:0.499999" />
          <text
             id="text3517-5-4-1-0-1"
             y="1524.111"
             x="-236.47043"
             style="font-style:normal;font-weight:normal;font-size:16.5958px;line-height:1.25;font-family:sans-serif;letter-spacing:0px;word-spacing:0px;fill:#000000;fill-opacity:1;stroke:none;stroke-width:0.264583"
             xml:space="preserve"><tspan
               id="tspan3857-3"
               style="stroke-width:0.264583"
               y="1524.111"
               x="-236.47043"
               sodipodi:role="line">GOSH Roadmap</tspan></text>
        </g>
        <rect
           style="fill:#ffffff;fill-rule:evenodd;stroke:#000000;stroke-width:0.499999"
           id="rect1125-0"
           width="144.29216"
           height="34.835682"
           x="-243.62988"
           y="1489.9375"
           rx="3.0359349"
           ry="3.0081537" />
        <text
           xml:space="preserve"
           style="font-style:normal;font-weight:normal;font-size:16.5958px;line-height:1.25;font-family:sans-serif;letter-spacing:0px;word-spacing:0px;fill:#000000;fill-opacity:1;stroke:none;stroke-width:0.264583"
           x="-225.23918"
           y="1512.5742"
           id="text3517-5-4-1-0-1-6"><tspan
             sodipodi:role="line"
             x="-225.23918"
             y="1512.5742"
             style="stroke-width:0.264583"
             id="tspan3857-3-2">Gitlab issues</tspan></text>
      </g>
    </g>
    <text
       inkscape:export-ydpi="59.880001"
       inkscape:export-xdpi="59.880001"
       id="text3517-9-1-0-9-61"
       y="876.39172"
       x="-171.4323"
       style="font-style:normal;font-weight:normal;font-size:8.8251px;line-height:1.25;font-family:sans-serif;letter-spacing:0px;word-spacing:0px;fill:#000000;fill-opacity:1;stroke:none;stroke-width:0.264583"
       xml:space="preserve"><tspan
         style="font-weight:bold;stroke-width:0.264583"
         y="876.39172"
         x="-171.4323"
         sodipodi:role="line"
         id="tspan3863-8-87">TBD</tspan></text>
    <ellipse
       inkscape:export-ydpi="59.880001"
       inkscape:export-xdpi="59.880001"
       ry="10.724899"
       rx="10.7249"
       style="fill:#ffffff;fill-opacity:1;fill-rule:evenodd;stroke:#000000;stroke-width:1;stroke-miterlimit:4;stroke-dasharray:4, 1;stroke-dashoffset:0"
       id="path1437-2-4-9-92"
       cx="-307.61813"
       cy="756.32416" />
    <ellipse
       inkscape:export-ydpi="59.880001"
       inkscape:export-xdpi="59.880001"
       cy="738.05035"
       cx="-325.02133"
       id="path1437-2-4-9-92-0"
       style="fill:#ffffff;fill-opacity:1;fill-rule:evenodd;stroke:#000000;stroke-width:1;stroke-miterlimit:4;stroke-dasharray:4, 1;stroke-dashoffset:0"
       rx="10.7249"
       ry="10.724899" />
    <ellipse
       inkscape:export-ydpi="59.880001"
       inkscape:export-xdpi="59.880001"
       cy="712.38818"
       cx="-331.70212"
       id="path1437-2-4-9-92-2"
       style="fill:#ffffff;fill-opacity:1;fill-rule:evenodd;stroke:#000000;stroke-width:1;stroke-miterlimit:4;stroke-dasharray:4, 1;stroke-dashoffset:0"
       rx="10.7249"
       ry="10.724899" />
    <circle
       inkscape:export-ydpi="59.880001"
       inkscape:export-xdpi="59.880001"
       r="34.169342"
       cy="776.50934"
       cx="-150.40825"
       id="path1437-2-4-9-9-3"
       style="fill:#ffffff;fill-opacity:1;fill-rule:evenodd;stroke:#000000;stroke-width:1;stroke-miterlimit:4;stroke-dasharray:4, 1;stroke-dashoffset:0" />
    <text
       inkscape:export-ydpi="59.880001"
       inkscape:export-xdpi="59.880001"
       xml:space="preserve"
       style="font-style:normal;font-weight:normal;font-size:8.8251px;line-height:1.25;font-family:sans-serif;letter-spacing:0px;word-spacing:0px;fill:#000000;fill-opacity:1;stroke:none;stroke-width:0.264583"
       x="-202.15677"
       y="737.33734"
       id="text3517-9-1-0-7"><tspan
         id="tspan3863-5"
         sodipodi:role="line"
         x="-202.15677"
         y="737.33734"
         style="font-weight:bold;stroke-width:0.264583">GOSH event organizers</tspan></text>
    <text
       inkscape:export-ydpi="59.880001"
       inkscape:export-xdpi="59.880001"
       id="text3517-9-1-0-7-5"
       y="791.13611"
       x="-108.6296"
       style="font-style:normal;font-weight:normal;font-size:6.35px;line-height:1.25;font-family:sans-serif;letter-spacing:0px;word-spacing:0px;fill:#000000;fill-opacity:1;stroke:none;stroke-width:0.264583"
       xml:space="preserve"><tspan
         style="font-weight:bold;font-size:6.35px;stroke-width:0.264583"
         y="791.13611"
         x="-108.6296"
         sodipodi:role="line"
         id="tspan3863-5-0">assets</tspan><tspan
         style="font-weight:bold;font-size:6.35px;stroke-width:0.264583"
         y="799.07361"
         x="-108.6296"
         sodipodi:role="line"
         id="tspan1463">- google drive, website, forum</tspan><tspan
         style="font-weight:bold;font-size:6.35px;stroke-width:0.264583"
         y="807.01111"
         x="-108.6296"
         sodipodi:role="line"
         id="tspan1465">- brand materials</tspan><tspan
         style="font-weight:bold;font-size:6.35px;stroke-width:0.264583"
         y="814.94861"
         x="-108.6296"
         sodipodi:role="line"
         id="tspan1472">- grant applications, connections</tspan></text>
    <g
       inkscape:export-ydpi="59.880001"
       inkscape:export-xdpi="59.880001"
       transform="translate(3.6375125,-77.425136)"
       id="g4362-7">
      <rect
         style="fill:#ececec;fill-opacity:1;fill-rule:evenodd;stroke:none;stroke-width:0.264999;stroke-miterlimit:4;stroke-dasharray:none"
         id="rect4233-5-4-1-8-3"
         width="157.21945"
         height="38.203735"
         x="-113.29551"
         y="822.69843"
         rx="3.0359318"
         ry="3.0081663" />
      <text
         id="text3517-9-1-0-9-4-6"
         y="831.8468"
         x="-108.4283"
         style="font-style:normal;font-weight:normal;font-size:8.8251px;line-height:1.25;font-family:sans-serif;letter-spacing:0px;word-spacing:0px;fill:#000000;fill-opacity:1;stroke:none;stroke-width:0.264583"
         xml:space="preserve"><tspan
           style="font-style:italic;font-weight:normal;stroke-width:0.264583"
           y="831.8468"
           x="-108.4283"
           sodipodi:role="line"
           id="tspan4092-3">- lots of de-facto decision-making</tspan><tspan
           id="tspan1379"
           style="font-style:italic;font-weight:normal;stroke-width:0.264583"
           y="842.87817"
           x="-108.4283"
           sodipodi:role="line">- filter for in-person events</tspan><tspan
           id="tspan1381"
           style="font-style:italic;font-weight:normal;stroke-width:0.264583"
           y="853.90955"
           x="-108.4283"
           sodipodi:role="line">- early support for community</tspan></text>
    </g>
    <path
       inkscape:export-ydpi="59.880001"
       inkscape:export-xdpi="59.880001"
       d="m -309.1524,684.39857 c -2.45051,-1.33281 -5.10475,-1.9231 -7.83115,-2.38207 -4.53156,-0.68834 -9.05725,-1.3675 -13.61037,-1.91342 -5.43989,-0.84926 -10.92253,-0.70979 -16.31891,0.30819 -7.80583,2.84208 -15.53339,6.98362 -20.71923,13.57752 -2.70773,2.76833 -4.8657,5.88393 -6.50631,9.38432 -1.91046,4.16065 -4.7702,7.80632 -6.46893,12.07799 -0.41625,1.04669 -0.71839,2.13524 -1.07759,3.20286 -1.58634,5.23695 -3.45743,10.39215 -4.76888,15.70993 -0.96654,3.91922 -1.15183,5.35019 -1.85387,9.31709 -1.37096,9.25483 -2.05042,18.63809 -1.1154,27.97437 0.2369,2.36548 0.63979,4.7114 0.95969,7.06712 1.58624,9.6601 4.82115,18.89485 7.89101,28.14902 1.96531,5.9245 2.65459,8.18163 4.53775,14.14375 2.58784,10.65451 6.34888,20.91526 11.63609,30.51604 4.37042,8.51014 9.32741,16.69727 13.98261,25.05059 0.75112,1.29977 1.51583,2.59178 2.25336,3.89932 0.7528,1.33464 1.4232,2.71635 2.21739,4.02678 3.49394,5.76511 7.74549,11.0659 11.92941,16.33355 4.32754,5.00747 8.65655,10.01892 12.81131,15.17165 2.96053,4.36481 5.19744,9.15128 6.99697,14.09356 1.58909,4.0921 2.32943,8.42399 3.46478,12.64164 0.61899,2.29944 1.36629,4.5625 2.02726,6.85022 0.96495,4.28212 2.70982,8.3022 4.16715,12.41853 0.66642,1.88236 1.19702,3.81008 1.79458,5.71543 1.52091,6.40974 4.92992,11.96401 8.21124,17.57672 3.28932,5.301 7.8557,9.59646 12.05821,14.14761 3.34773,3.88672 6.24055,8.13272 9.52025,12.07162 3.24548,3.9184 5.67948,8.3969 8.17605,12.805 1.74556,3.2678 4.45543,5.6027 7.20779,7.983 2.82909,2.4466 2.56471,2.2371 5.29636,4.7226 4.26623,4.0257 8.96492,7.5611 12.9651,11.8651 2.55622,2.8405 5.05793,5.7358 7.86916,8.3293 2.27697,2.0231 4.83119,3.7339 7.54737,5.1072 2.47685,1.1477 4.95495,2.2751 7.35629,3.5755 1.26606,0.6794 0.63579,0.3584 1.8896,0.9657 0,0 11.86619,-7.88 11.86619,-7.88 v 0 c -1.23066,-0.5053 -0.60986,-0.2253 -1.85952,-0.8463 -2.42274,-1.3526 -4.98647,-2.4005 -7.49445,-3.5815 -2.67692,-1.202 -5.06058,-2.9203 -7.31733,-4.7801 -2.8859,-2.4943 -5.43874,-5.3105 -8.07148,-8.0665 -4.109,-4.2789 -8.77176,-7.9256 -13.22091,-11.835 -4.30289,-3.8566 -8.94312,-7.5315 -12.04777,-12.4795 -2.61002,-4.4328 -4.96673,-9.0508 -8.33952,-12.9773 -3.27185,-3.9803 -6.16164,-8.26338 -9.55814,-12.14445 -4.18922,-4.4473 -8.85169,-8.51606 -12.07435,-13.78413 -3.21999,-5.52646 -6.46845,-11.04961 -7.99299,-17.33632 -1.80838,-6.09814 -4.4083,-11.90572 -6.05889,-18.05641 -1.87247,-6.52923 -3.326,-13.1658 -5.43082,-19.62639 -1.81436,-5.10522 -3.93058,-10.15079 -7.06428,-14.605 -4.31027,-5.07003 -8.91646,-9.87621 -13.36926,-14.81913 -4.24253,-5.14921 -8.36736,-10.39199 -11.75673,-16.15839 -0.78293,-1.332 -1.4481,-2.73021 -2.20798,-4.07551 -0.73607,-1.30313 -1.51944,-2.57898 -2.27916,-3.86848 -4.81248,-8.26836 -9.693,-16.49592 -13.85505,-25.1193 -5.44014,-9.36757 -9.61439,-19.31006 -12.30129,-29.83074 -2.02493,-6.45374 -2.41042,-7.76904 -4.52908,-14.1769 -3.03675,-9.18459 -6.18781,-18.37066 -7.7069,-27.96334 -0.27075,-2.34513 -0.63222,-4.68156 -0.81225,-7.0354 -0.71667,-9.37041 0.35403,-18.69464 1.72727,-27.95201 0.75067,-4.10086 0.86393,-5.1657 1.93396,-9.2116 1.41429,-5.34766 3.41749,-10.51468 5.12012,-15.77168 0.39776,-1.03296 0.74739,-2.08574 1.19329,-3.09883 1.86812,-4.2445 4.77493,-7.93181 6.69017,-12.15292 1.83555,-3.38114 4.18517,-6.33037 6.77978,-9.16287 0.98329,-1.12789 1.2208,-1.46544 2.36351,-2.4947 0.45972,-0.41407 1.97697,-1.47161 1.4286,-1.18507 -3.53535,1.84743 -6.92435,3.96314 -10.42045,5.88381 -0.55508,0.30493 1.03892,-0.72888 1.59358,-1.03458 0.54892,-0.30252 1.13897,-0.52353 1.70846,-0.78531 5.29029,-1.42629 10.79001,-1.70397 16.20928,-0.83574 2.57763,0.35748 5.17275,0.6231 7.73535,1.08064 1.32423,0.23643 2.62002,0.62026 3.94711,0.84008 0.54143,0.0897 1.0926,0.1047 1.63891,0.15706 2.57221,0.35274 5.08353,0.76083 7.32393,2.1577 0,0 12.01295,-7.87122 12.01295,-7.87122 z"
       id="path1387"
       style="fill:#e6e6e6;fill-rule:evenodd;stroke:#e6e6e6;stroke-width:0.499999" />
    <path
       inkscape:export-ydpi="59.880001"
       inkscape:export-xdpi="59.880001"
       d="m -208.55098,1052.8474 c 1.04651,3.5908 1.1475,7.3891 0.83717,11.094 -0.31543,1.4939 -0.25082,3.5791 -1.27246,4.8572 -0.31337,0.392 -0.78883,0.6211 -1.172,0.9453 -4.92314,2.2894 1.92135,-0.8601 10.15466,-6.1029 0.51575,-0.3284 -1.14927,0.4199 -1.73466,0.5965 -2.24422,0.6768 -4.52848,0.989 -6.8453,1.2922 -5.7716,0.3745 -11.49145,1.1915 -17.1862,2.1772 0,0 -10.83433,8.175 -10.83433,8.175 v 0 c 5.59852,-1.0782 11.23516,-1.9729 16.94708,-2.1159 8.77708,-0.8229 15.38848,-2.6563 22.71115,-9.5189 1.48259,-1.8464 1.57292,-4.3181 1.74881,-6.5928 0.12526,-3.8527 -0.10737,-7.6966 -0.68527,-11.5086 0,0 -12.66865,6.7017 -12.66865,6.7017 z"
       id="path1389"
       style="fill:#e6e6e6;fill-rule:evenodd;stroke:#e6e6e6;stroke-width:0.499999" />
    <text
       inkscape:export-ydpi="59.880001"
       inkscape:export-xdpi="59.880001"
       id="text3517-9-1-0-6-19"
       y="1010.109"
       x="-372.71545"
       style="font-style:normal;font-weight:normal;font-size:8.8251px;line-height:1.25;font-family:sans-serif;letter-spacing:0px;word-spacing:0px;fill:#000000;fill-opacity:1;stroke:none;stroke-width:0.264583"
       xml:space="preserve"><tspan
         id="tspan4003-4"
         style="font-weight:bold;stroke-width:0.264583"
         y="1010.109"
         x="-372.71545"
         sodipodi:role="line">until now, we've</tspan><tspan
         id="tspan1435"
         style="font-weight:bold;stroke-width:0.264583"
         y="1021.1404"
         x="-372.71545"
         sodipodi:role="line">done most decision-</tspan><tspan
         id="tspan1439"
         style="font-weight:bold;stroke-width:0.264583"
         y="1032.1718"
         x="-372.71545"
         sodipodi:role="line">making through the </tspan><tspan
         id="tspan1431"
         style="font-weight:bold;stroke-width:0.264583"
         y="1043.2031"
         x="-372.71545"
         sodipodi:role="line">international conference</tspan></text>
    <g
       inkscape:export-ydpi="59.880001"
       inkscape:export-xdpi="59.880001"
       transform="translate(-83.564618,27.316771)"
       id="g1587">
      <circle
         r="34.169342"
         cy="1063.4324"
         cx="122.98073"
         id="path1437-2-4-9-9-3-3"
         style="fill:#ffffff;fill-opacity:1;fill-rule:evenodd;stroke:#000000;stroke-width:1;stroke-miterlimit:4;stroke-dasharray:4, 1;stroke-dashoffset:0" />
      <text
         xml:space="preserve"
         style="font-style:normal;font-weight:normal;font-size:8.8251px;line-height:1.25;font-family:sans-serif;letter-spacing:0px;word-spacing:0px;fill:#000000;fill-opacity:1;stroke:none;stroke-width:0.264583"
         x="95.616806"
         y="1022.4406"
         id="text3517-9-1-0-7-6"><tspan
           id="tspan3863-5-1"
           sodipodi:role="line"
           x="95.616806"
           y="1022.4406"
           style="font-weight:bold;stroke-width:0.264583">Public Lab</tspan></text>
      <rect
         ry="3.0081663"
         rx="3.0359318"
         y="1027.3241"
         x="164.26817"
         height="47.277668"
         width="135.43564"
         id="rect4233-5-4-1-8-3-1"
         style="fill:#ececec;fill-opacity:1;fill-rule:evenodd;stroke:none;stroke-width:0.264999;stroke-miterlimit:4;stroke-dasharray:none" />
      <text
         xml:space="preserve"
         style="font-style:normal;font-weight:normal;font-size:8.8251px;line-height:1.25;font-family:sans-serif;letter-spacing:0px;word-spacing:0px;fill:#000000;fill-opacity:1;stroke:none;stroke-width:0.264583"
         x="169.13538"
         y="1036.4724"
         id="text3517-9-1-0-9-4-6-5"><tspan
           sodipodi:role="line"
           x="169.13538"
           y="1036.4724"
           style="font-style:italic;font-weight:normal;stroke-width:0.264583"
           id="tspan1381-7">- fiscal sponsor</tspan><tspan
           id="tspan1559"
           sodipodi:role="line"
           x="169.13538"
           y="1047.5038"
           style="font-style:italic;font-weight:normal;stroke-width:0.264583">- bank account for int. event</tspan><tspan
           id="tspan1561"
           sodipodi:role="line"
           x="169.13538"
           y="1058.5352"
           style="font-style:italic;font-weight:normal;stroke-width:0.264583">- responsible body for grant</tspan><tspan
           id="tspan1589"
           sodipodi:role="line"
           x="169.13538"
           y="1069.5665"
           style="font-style:italic;font-weight:normal;stroke-width:0.264583">apps.</tspan></text>
    </g>
    <path
       inkscape:export-ydpi="59.880001"
       inkscape:export-xdpi="59.880001"
       d="m 51.866014,766.75492 c 3.264217,-0.21926 6.505178,0.1828 9.719839,0.70617 3.477127,0.67315 6.978835,1.383 10.36185,2.44637 2.081054,0.77025 4.082309,1.7771 5.980589,2.92491 1.8288,1.0573 2.985664,2.75148 4.166076,4.43839 1.77464,2.15418 3.062129,4.3408 3.950494,6.98952 1.180147,3.75513 1.566968,7.69334 2.181119,11.56584 0.813329,4.71649 0.70911,9.51235 0.668549,14.27871 0.09089,5.61481 -0.36531,11.18608 -1.175993,16.73511 -1.036162,6.23472 -1.937941,12.4905 -3.215852,18.68165 -1.461056,6.8299 -2.023639,13.80167 -2.771325,20.73346 -0.698527,7.12991 -0.95295,14.28983 -1.089369,21.44895 0.189971,6.81323 -0.661538,13.56572 -1.389142,20.32072 -0.547926,5.07066 -1.112017,10.13957 -1.731592,15.20232 -0.778484,5.36919 -1.904524,10.68252 -2.945897,16.00584 -1.132417,5.1748 -1.323843,10.46054 -1.641793,15.72503 -0.304853,5.2015 -1.600517,10.2249 -2.823421,15.26003 -1.053677,4.45579 -1.882035,8.96898 -3.502263,13.26216 -1.203431,3.99235 -2.963545,7.76195 -5.008166,11.38288 -1.804458,3.49183 -2.70166,7.37132 -3.592248,11.17732 -0.568537,3.0515 -1.332468,6.0622 -1.960933,9.101 -1.071351,3.3365 -2.462027,6.5681 -3.748564,9.8328 -1.009993,2.2589 -2.053775,4.5124 -2.679805,6.9135 -0.136763,0.5416 -0.189442,1.0956 -0.233072,1.6503 0,0 9.077061,-4.52 9.077061,-4.52 v 0 c 0.05353,-0.4946 0.115675,-0.9883 0.238495,-1.4718 0.591793,-2.3014 1.5426,-4.4792 2.441654,-6.6734 1.271191,-3.3254 2.867105,-6.5345 3.740521,-9.9969 0.693631,-3.0152 1.414171,-6.0231 1.93622,-9.075 0.860928,-3.74142 1.77345,-7.52393 3.652864,-10.9075 1.996361,-3.6852 3.655881,-7.53094 4.946121,-11.52295 1.507411,-4.33379 2.166726,-8.87791 3.35534,-13.30306 1.293627,-5.05653 2.231866,-10.17072 2.673562,-15.37933 0.347927,-5.21893 0.608462,-10.45816 1.66288,-15.59708 1.056137,-5.35342 2.247979,-10.68629 2.982965,-16.0972 0.649817,-5.04545 1.231291,-10.10277 1.625071,-15.1752 0.637989,-6.759 1.307544,-13.52177 1.221131,-20.32167 0.141843,-7.1383 0.357161,-14.28361 1.14136,-21.38564 0.716095,-6.91684 1.336437,-13.86366 2.84263,-20.66623 1.284764,-6.22562 2.234935,-12.50937 3.286204,-18.77737 0.815076,-5.59388 1.282092,-11.21164 1.165755,-16.87044 0.07911,-4.84199 0.287099,-9.70503 -0.583698,-14.49745 -0.560784,-3.94584 -1.029308,-7.93372 -2.154978,-11.76745 -0.878179,-2.70613 -2.113412,-5.13006 -3.983302,-7.2947 -1.235234,-1.81776 -2.380377,-3.67823 -4.339458,-4.81737 -1.955879,-1.22288 -4.040478,-2.2443 -6.188736,-3.08221 -3.458131,-1.08156 -7.05993,-1.6514 -10.593229,-2.43057 -3.137746,-0.65077 -6.314281,-1.11162 -9.526931,-1.06548 0,0 -8.138583,5.91302 -8.138583,5.91302 z"
       id="path1591"
       style="fill:#e6e6e6;fill-rule:evenodd;stroke:#e6e6e6;stroke-width:0.499999" />
    <path
       inkscape:export-ydpi="59.880001"
       inkscape:export-xdpi="59.880001"
       d="m 42.127918,1025.3536 c 2.626519,0.3971 4.681088,2.3846 6.614901,4.0693 1.621552,1.4084 2.662,3.5369 4.686882,4.4067 4.935273,0.1748 9.226656,-4.1137 12.834541,-7.3492 1.92061,-1.4775 3.799866,-3.0092 5.669253,-4.5513 1.3208,-1.1225 0.697521,-0.5494 1.875631,-1.7132 0,0 -9.194376,3.783 -9.194376,3.783 v 0 c -1.172977,1.0783 -0.556313,0.5352 -1.854491,1.6241 -1.904921,1.5516 -3.849767,3.0534 -5.746433,4.6148 -0.213862,0.1812 -1.23608,1.0516 -1.494631,1.2548 -0.213624,0.1678 -0.893709,0.6152 -0.655849,0.4839 14.265963,-7.8762 9.851575,-5.4414 6.859349,-3.8947 -0.178858,0.01 -0.36367,0.07 -0.536628,0.024 -1.296723,-0.3474 -2.956586,-3.0743 -4.054607,-3.9023 -1.64203,-1.4352 -3.961209,-3.4916 -5.907061,-4.4168 -0.251645,-0.1196 -0.531971,-0.1659 -0.797957,-0.2489 0,0 -8.298524,5.8158 -8.298524,5.8158 z"
       id="path1593"
       style="fill:#e6e6e6;fill-rule:evenodd;stroke:#e6e6e6;stroke-width:0.499999" />
    <text
       inkscape:export-ydpi="59.880001"
       inkscape:export-xdpi="59.880001"
       xml:space="preserve"
       style="font-style:normal;font-weight:normal;font-size:8.8251px;line-height:1.25;font-family:sans-serif;letter-spacing:0px;word-spacing:0px;fill:#000000;fill-opacity:1;stroke:none;stroke-width:0.264583"
       x="96.837944"
       y="865.50208"
       id="text3517-9-1-0-6-19-6"><tspan
         sodipodi:role="line"
         x="96.837944"
         y="865.50208"
         style="font-weight:bold;stroke-width:0.264583"
         id="tspan1431-3">until now, we've</tspan><tspan
         id="tspan1631"
         sodipodi:role="line"
         x="96.837944"
         y="876.53345"
         style="font-weight:bold;stroke-width:0.264583">used Public Lab</tspan><tspan
         id="tspan1633"
         sodipodi:role="line"
         x="96.837944"
         y="887.56482"
         style="font-weight:bold;stroke-width:0.264583">as fiscal sponsor</tspan><tspan
         id="tspan1635"
         sodipodi:role="line"
         x="96.837944"
         y="898.59619"
         style="font-weight:bold;stroke-width:0.264583">+ bank account</tspan></text>
    <g
       inkscape:export-ydpi="59.880001"
       inkscape:export-xdpi="59.880001"
       id="g4347-5-7"
       transform="translate(96.381798,-204.60488)">
      <text
         xml:space="preserve"
         style="font-style:normal;font-weight:normal;font-size:10.5833px;line-height:1.25;font-family:sans-serif;letter-spacing:0px;word-spacing:0px;fill:#000000;fill-opacity:1;stroke:none;stroke-width:0.264583"
         x="-78.221794"
         y="489.41757"
         id="text3517-59-5-5"><tspan
           id="tspan999-9-5"
           sodipodi:role="line"
           x="-78.221794"
           y="489.41757"
           style="font-style:italic;stroke-width:0.264583">- does this change?</tspan><tspan
           id="tspan1677"
           sodipodi:role="line"
           x="-78.221794"
           y="502.6467"
           style="font-style:italic;stroke-width:0.264583">- if so, how does it change?</tspan><tspan
           id="tspan1679"
           sodipodi:role="line"
           x="-78.221794"
           y="515.87579"
           style="font-style:italic;stroke-width:0.264583">- right now... only through intern.</tspan><tspan
           id="tspan1681"
           sodipodi:role="line"
           x="-78.221794"
           y="529.10492"
           style="font-style:italic;stroke-width:0.264583">conference + consensus process</tspan></text>
    </g>
  </g>
</svg>
